Final Project Tutorial: U.S. Pollution Data
…
Tidyverse and dplyr are just to make our lives easier. ggplot2 will help us create plots. Leaflet and Shiny will allows us to create interactive maps, that will help veiw our data. Lastly, geojsonio will help us better view the maps we create using leaflet and shiny. Caret, broom, and plotROC will help with creating and analyzing our model.

1. Getting Started

1.1 Get the Data

We will get our data from Kaggle. You might need a Kaggle account, but it is worth getting due to all of the datasets available. All we need to do is download the .csv file and read it. This data gives us data collected about the pollutants, NO2, O3, SO2, and CO. All of these are within the U.S between 2000 - 2016. However, data is not for every state, and is not consistent. So sometimes we will have missing data for one year in a certain state. It is worth noting that this data set has nearly about 1.7 million entries, so some operation will be slow.

# Data from: https://www.kaggle.com/sogun3/uspollution/downloads/uspollution.zip/1
csv_file <- "pollution_us_2000_2016.csv"
tidy_df <- read_csv(csv_file)
tidy_df

## # A tibble: 1,746,661 x 29
##       X1 `State Code` `County Code` `Site Num` Address State County City 
##    <dbl>        <dbl>         <dbl>      <dbl> <chr>   <chr> <chr>  <chr>
##  1     0            4            13       3002 1645 E~ Ariz~ Maric~ Phoe~
##  2     1            4            13       3002 1645 E~ Ariz~ Maric~ Phoe~
##  3     2            4            13       3002 1645 E~ Ariz~ Maric~ Phoe~
##  4     3            4            13       3002 1645 E~ Ariz~ Maric~ Phoe~
##  5     4            4            13       3002 1645 E~ Ariz~ Maric~ Phoe~
##  6     5            4            13       3002 1645 E~ Ariz~ Maric~ Phoe~
##  7     6            4            13       3002 1645 E~ Ariz~ Maric~ Phoe~
##  8     7            4            13       3002 1645 E~ Ariz~ Maric~ Phoe~
##  9     8            4            13       3002 1645 E~ Ariz~ Maric~ Phoe~
## 10     9            4            13       3002 1645 E~ Ariz~ Maric~ Phoe~
## # ... with 1,746,651 more rows, and 21 more variables: `Date
## #   Local` <date>, `NO2 Units` <chr>, `NO2 Mean` <dbl>, `NO2 1st Max
## #   Value` <dbl>, `NO2 1st Max Hour` <dbl>, `NO2 AQI` <dbl>, `O3
## #   Units` <chr>, `O3 Mean` <dbl>, `O3 1st Max Value` <dbl>, `O3 1st Max
## #   Hour` <dbl>, `O3 AQI` <dbl>, `SO2 Units` <chr>, `SO2 Mean` <dbl>, `SO2
## #   1st Max Value` <dbl>, `SO2 1st Max Hour` <dbl>, `SO2 AQI` <dbl>, `CO
## #   Units` <chr>, `CO Mean` <dbl>, `CO 1st Max Value` <dbl>, `CO 1st Max
## #   Hour` <dbl>, `CO AQI` <dbl>
…
# Remove the hour of the max value columns
tidy_df <- tidy_df[-c(4,8,12,16)]

# rename date column a DATE variable
colnames(tidy_df)[3] <- "Date"
tidy_df <- type_convert(tidy_df, col_types = cols("Date" = col_datetime("%Y-%m-%d")))

# Add a year column to speed up data visualization
tidy_df$year <- substring(tidy_df$Date,1,4)

# Add a month column
tidy_df$month <- substring(tidy_df$Date,6,7)
tidy_df

## # A tibble: 1,746,661 x 17
##    State City  Date       `NO2 1st Max Va~ `NO2 1st Max Ho~ `NO2 AQI`
##    <chr> <chr> <date>                <dbl>            <dbl>     <dbl>
##  1 Ariz~ Phoe~ 2000-01-01               49               19        46
##  2 Ariz~ Phoe~ 2000-01-01               49               19        46
##  3 Ariz~ Phoe~ 2000-01-01               49               19        46
##  4 Ariz~ Phoe~ 2000-01-01               49               19        46
##  5 Ariz~ Phoe~ 2000-01-02               36               19        34
##  6 Ariz~ Phoe~ 2000-01-02               36               19        34
##  7 Ariz~ Phoe~ 2000-01-02               36               19        34
##  8 Ariz~ Phoe~ 2000-01-02               36               19        34
##  9 Ariz~ Phoe~ 2000-01-03               51                8        48
## 10 Ariz~ Phoe~ 2000-01-03               51                8        48
## # ... with 1,746,651 more rows, and 11 more variables: `O3 1st Max
## #   Value` <dbl>, `O3 1st Max Hour` <dbl>, `O3 AQI` <dbl>, `SO2 1st Max
## #   Value` <dbl>, `SO2 1st Max Hour` <dbl>, `SO2 AQI` <dbl>, `CO 1st Max
## #   Value` <dbl>, `CO 1st Max Hour` <dbl>, `CO AQI` <dbl>, year <chr>,
## #   month <chr>
…
# Data from: https://simplemaps.com/data/us-cities
# Now get longitude and latitude of each locaiton
csv_file <- "uscitiesv1.5.csv"
cities_df <- read_csv(csv_file)
# Remove useless columns
cities_df <- cities_df[-c(2,3,5,6,9:16)] 
colnames(cities_df)[1] <- "City"
colnames(cities_df)[2] <- "State"

# Join the two table on City and State to get Longitude and latitude
tidy_df <- left_join(tidy_df, cities_df, by= c("City", "State"))
tidy_df

## # A tibble: 1,746,661 x 19
##    State City  Date       `NO2 1st Max Va~ `NO2 1st Max Ho~ `NO2 AQI`
##    <chr> <chr> <date>                <dbl>            <dbl>     <dbl>
##  1 Ariz~ Phoe~ 2000-01-01               49               19        46
##  2 Ariz~ Phoe~ 2000-01-01               49               19        46
##  3 Ariz~ Phoe~ 2000-01-01               49               19        46
##  4 Ariz~ Phoe~ 2000-01-01               49               19        46
##  5 Ariz~ Phoe~ 2000-01-02               36               19        34
##  6 Ariz~ Phoe~ 2000-01-02               36               19        34
##  7 Ariz~ Phoe~ 2000-01-02               36               19        34
##  8 Ariz~ Phoe~ 2000-01-02               36               19        34
##  9 Ariz~ Phoe~ 2000-01-03               51                8        48
## 10 Ariz~ Phoe~ 2000-01-03               51                8        48
## # ... with 1,746,651 more rows, and 13 more variables: `O3 1st Max
## #   Value` <dbl>, `O3 1st Max Hour` <dbl>, `O3 AQI` <dbl>, `SO2 1st Max
## #   Value` <dbl>, `SO2 1st Max Hour` <dbl>, `SO2 AQI` <dbl>, `CO 1st Max
## #   Value` <dbl>, `CO 1st Max Hour` <dbl>, `CO AQI` <dbl>, year <chr>,
## #   month <chr>, lat <dbl>, lng <dbl>
…
